EESchema Schematic File Version 2
LIBS:STM32F072RxTx
LIBS:tlv274
LIBS:LD3985M3xR
LIBS:BAT54W
LIBS:tlv272
LIBS:REF303x
LIBS:conn
LIBS:power
LIBS:device
LIBS:LM2776
LIBS:logo_madresistor
LIBS:RT9728Bx
LIBS:box0-cache
EELAYER 25 0
EELAYER END
$Descr A4 11693 8268
encoding utf-8
Sheet 8 8
Title "Box0"
Date "03 April 2016"
Rev "0.3"
Comp "Mad Resistor"
Comment1 ""
Comment2 ""
Comment3 ""
Comment4 ""
$EndDescr
$Comp
L C C6
U 1 1 55391352
P 7700 5050
F 0 "C6" H 7700 5150 40  0000 L CNN
F 1 "10uF" H 7706 4965 40  0000 L CNN
F 2 "Capacitors_SMD:C_1206" H 7738 4900 30  0001 C CNN
F 3 "~" H 7700 5050 60  0000 C CNN
	1    7700 5050
	1    0    0    -1  
$EndComp
$Comp
L C C8
U 1 1 55391358
P 7950 5050
F 0 "C8" H 7950 5150 40  0000 L CNN
F 1 "100nF" H 7956 4965 40  0000 L CNN
F 2 "Capacitors_SMD:C_0603" H 7988 4900 30  0001 C CNN
F 3 "~" H 7950 5050 60  0000 C CNN
	1    7950 5050
	1    0    0    -1  
$EndComp
$Comp
L GND #PWR0103
U 1 1 55391364
P 7700 5200
F 0 "#PWR0103" H 7700 5200 30  0001 C CNN
F 1 "GND" H 7700 5130 30  0001 C CNN
F 2 "" H 7700 5200 60  0001 C CNN
F 3 "" H 7700 5200 60  0000 C CNN
	1    7700 5200
	1    0    0    -1  
$EndComp
$Comp
L GND #PWR0104
U 1 1 5539136A
P 7950 5200
F 0 "#PWR0104" H 7950 5200 30  0001 C CNN
F 1 "GND" H 7950 5130 30  0001 C CNN
F 2 "" H 7950 5200 60  0001 C CNN
F 3 "" H 7950 5200 60  0000 C CNN
	1    7950 5200
	1    0    0    -1  
$EndComp
$Comp
L C C5
U 1 1 5539137E
P 7700 4300
F 0 "C5" H 7700 4400 40  0000 L CNN
F 1 "10uF" H 7706 4215 40  0000 L CNN
F 2 "Capacitors_SMD:C_1206" H 7738 4150 30  0001 C CNN
F 3 "~" H 7700 4300 60  0000 C CNN
	1    7700 4300
	1    0    0    -1  
$EndComp
$Comp
L C C7
U 1 1 55391384
P 7950 4300
F 0 "C7" H 7950 4400 40  0000 L CNN
F 1 "100nF" H 7956 4215 40  0000 L CNN
F 2 "Capacitors_SMD:C_0603" H 7988 4150 30  0001 C CNN
F 3 "~" H 7950 4300 60  0000 C CNN
	1    7950 4300
	1    0    0    -1  
$EndComp
$Comp
L GND #PWR0105
U 1 1 55391390
P 7950 4450
F 0 "#PWR0105" H 7950 4450 30  0001 C CNN
F 1 "GND" H 7950 4380 30  0001 C CNN
F 2 "" H 7950 4450 60  0001 C CNN
F 3 "" H 7950 4450 60  0000 C CNN
	1    7950 4450
	1    0    0    -1  
$EndComp
$Comp
L GND #PWR0106
U 1 1 55391396
P 7700 4450
F 0 "#PWR0106" H 7700 4450 30  0001 C CNN
F 1 "GND" H 7700 4380 30  0001 C CNN
F 2 "" H 7700 4450 60  0001 C CNN
F 3 "" H 7700 4450 60  0000 C CNN
	1    7700 4450
	1    0    0    -1  
$EndComp
Text Label 8650 4150 2    60   ~ 0
RAIL1_V+
$Comp
L R R3
U 1 1 553913B0
P 3850 2650
F 0 "R3" V 3930 2650 40  0000 C CNN
F 1 "10K" V 3857 2651 40  0000 C CNN
F 2 "Resistors_SMD:R_0603" V 3780 2650 30  0001 C CNN
F 3 "~" H 3850 2650 30  0000 C CNN
	1    3850 2650
	0    -1   -1   0   
$EndComp
$Comp
L C C1
U 1 1 553913B6
P 3400 2800
F 0 "C1" H 3400 2900 40  0000 L CNN
F 1 "100nF" H 3406 2715 40  0000 L CNN
F 2 "Capacitors_SMD:C_0603" H 3438 2650 30  0001 C CNN
F 3 "~" H 3400 2800 60  0000 C CNN
	1    3400 2800
	1    0    0    -1  
$EndComp
$Comp
L GND #PWR0107
U 1 1 553913BC
P 3400 2950
F 0 "#PWR0107" H 3400 2950 30  0001 C CNN
F 1 "GND" H 3400 2880 30  0001 C CNN
F 2 "" H 3400 2950 60  0001 C CNN
F 3 "" H 3400 2950 60  0000 C CNN
	1    3400 2950
	1    0    0    -1  
$EndComp
$Comp
L R R5
U 1 1 553913C3
P 4550 2650
F 0 "R5" V 4630 2650 40  0000 C CNN
F 1 "10K" V 4557 2651 40  0000 C CNN
F 2 "Resistors_SMD:R_0603" V 4480 2650 30  0001 C CNN
F 3 "~" H 4550 2650 30  0000 C CNN
	1    4550 2650
	0    -1   -1   0   
$EndComp
Text Label 5100 2950 2    60   ~ 0
RAIL1_V+
Wire Wire Line
	7600 4900 8650 4900
Connection ~ 7700 4900
Wire Wire Line
	7600 4150 8650 4150
Connection ~ 7700 4150
Wire Wire Line
	4000 2650 4400 2650
Wire Wire Line
	4700 2650 5350 2650
Connection ~ 5350 3350
Connection ~ 4200 2650
Connection ~ 7950 4150
Text Label 5100 3750 2    60   ~ 0
RAIL1_V-
Text GLabel 3150 2650 0    60   Input ~ 0
VDDA
Wire Wire Line
	4200 2650 4200 3250
Wire Wire Line
	5200 3350 5750 3350
Connection ~ 3400 2650
Wire Wire Line
	3150 2650 3700 2650
Wire Notes Line
	6400 5450 8800 5450
Wire Notes Line
	8800 5450 8800 3800
Wire Notes Line
	8800 3800 6400 3800
$Comp
L R R4
U 1 1 55404568
P 3850 4150
F 0 "R4" V 3930 4150 40  0000 C CNN
F 1 "10K" V 3857 4151 40  0000 C CNN
F 2 "Resistors_SMD:R_0603" V 3780 4150 30  0001 C CNN
F 3 "~" H 3850 4150 30  0000 C CNN
	1    3850 4150
	0    -1   -1   0   
$EndComp
$Comp
L C C2
U 1 1 5540456E
P 3400 4300
F 0 "C2" H 3400 4400 40  0000 L CNN
F 1 "100nF" H 3406 4215 40  0000 L CNN
F 2 "Capacitors_SMD:C_0603" H 3438 4150 30  0001 C CNN
F 3 "~" H 3400 4300 60  0000 C CNN
	1    3400 4300
	1    0    0    -1  
$EndComp
$Comp
L GND #PWR0108
U 1 1 55404574
P 3400 4450
F 0 "#PWR0108" H 3400 4450 30  0001 C CNN
F 1 "GND" H 3400 4380 30  0001 C CNN
F 2 "" H 3400 4450 60  0001 C CNN
F 3 "" H 3400 4450 60  0000 C CNN
	1    3400 4450
	1    0    0    -1  
$EndComp
$Comp
L R R6
U 1 1 5540457A
P 4550 4150
F 0 "R6" V 4630 4150 40  0000 C CNN
F 1 "10K" V 4557 4151 40  0000 C CNN
F 2 "Resistors_SMD:R_0603" V 4480 4150 30  0001 C CNN
F 3 "~" H 4550 4150 30  0000 C CNN
	1    4550 4150
	0    -1   -1   0   
$EndComp
Wire Wire Line
	4000 4150 4400 4150
Wire Wire Line
	4700 4150 5350 4150
Connection ~ 5350 4850
Connection ~ 4200 4150
Text GLabel 3150 4150 0    60   Input ~ 0
VDDA
Wire Wire Line
	4200 4150 4200 4750
Wire Wire Line
	5200 4850 5750 4850
Connection ~ 3400 4150
Wire Wire Line
	3150 4150 3700 4150
Wire Wire Line
	4600 2950 5100 2950
Wire Wire Line
	4600 3750 5100 3750
Connection ~ 4600 2950
Text GLabel 7150 4150 0    60   Input ~ 0
ANALOG_POS
Text GLabel 7150 4900 0    60   Input ~ 0
ANALOG_NEG
Wire Notes Line
	6400 3800 6400 5450
Wire Notes Line
	2750 5450 2750 2250
Wire Wire Line
	3500 4950 4200 4950
Wire Wire Line
	3500 3450 4200 3450
Entry Wire Line
	6900 2900 7000 3000
Entry Wire Line
	6900 3000 7000 3100
Text Label 7300 3000 2    60   ~ 0
OUT0
Text Label 7300 3100 2    60   ~ 0
OUT1
Text HLabel 7000 2800 2    60   Output ~ 0
OUT[0..1]
Wire Wire Line
	7000 3000 7300 3000
Wire Wire Line
	7000 3100 7300 3100
Entry Wire Line
	7650 2900 7750 3000
Entry Wire Line
	7650 3000 7750 3100
Text Label 8050 3000 2    60   ~ 0
IN0
Text Label 8050 3100 2    60   ~ 0
IN1
Text HLabel 7750 2800 2    60   Input ~ 0
IN[0..1]
Wire Wire Line
	7750 3000 8050 3000
Wire Bus Line
	7000 2800 6900 2800
Wire Bus Line
	6900 2800 6900 3000
Wire Wire Line
	7750 3100 8050 3100
Wire Bus Line
	7750 2800 7650 2800
Wire Bus Line
	7650 2800 7650 3000
Text Label 3500 4950 0    60   ~ 0
IN1
Text Label 3500 3450 0    60   ~ 0
IN0
Text Label 5750 3350 2    60   ~ 0
OUT0
Text Label 5750 4850 2    60   ~ 0
OUT1
Text Label 8650 4900 2    60   ~ 0
RAIL1_V-
Connection ~ 7950 4900
$Comp
L TLV272 U1
U 1 1 55A24447
P 4700 3350
F 0 "U1" H 4650 3550 60  0000 L CNN
F 1 "TLV272" H 4650 3100 60  0000 L CNN
F 2 "Housings_SOIC:SOIC-8_3.9x4.9mm_Pitch1.27mm" H 4700 3350 60  0001 C CNN
F 3 "~" H 4700 3350 60  0000 C CNN
	1    4700 3350
	1    0    0    -1  
$EndComp
Wire Wire Line
	5350 4150 5350 4850
Wire Wire Line
	5350 2650 5350 3350
$Comp
L TLV272 U1
U 2 1 55A24D7F
P 4700 4850
F 0 "U1" H 4650 5050 60  0000 L CNN
F 1 "TLV272" H 4650 4600 60  0000 L CNN
F 2 "Housings_SOIC:SOIC-8_3.9x4.9mm_Pitch1.27mm" H 4700 4850 60  0001 C CNN
F 3 "~" H 4700 4850 60  0000 C CNN
	2    4700 4850
	1    0    0    -1  
$EndComp
Wire Notes Line
	5850 5450 5850 2250
Wire Notes Line
	2750 5450 5850 5450
Wire Notes Line
	6800 2700 6800 3200
Wire Notes Line
	6800 3200 8250 3200
Wire Notes Line
	6800 2700 8250 2700
Wire Notes Line
	7550 2700 7550 3200
Wire Notes Line
	8250 2700 8250 3200
$Comp
L R R8
U 1 1 55F5E820
P 7450 4150
F 0 "R8" V 7530 4150 50  0000 C CNN
F 1 "10" V 7450 4150 50  0000 C CNN
F 2 "Resistors_SMD:R_0603" V 7380 4150 30  0001 C CNN
F 3 "" H 7450 4150 30  0000 C CNN
	1    7450 4150
	0    1    1    0   
$EndComp
$Comp
L R R9
U 1 1 55F5E881
P 7450 4900
F 0 "R9" V 7530 4900 50  0000 C CNN
F 1 "10" V 7450 4900 50  0000 C CNN
F 2 "Resistors_SMD:R_0603" V 7380 4900 30  0001 C CNN
F 3 "" H 7450 4900 30  0000 C CNN
	1    7450 4900
	0    1    1    0   
$EndComp
Wire Wire Line
	7150 4150 7300 4150
Wire Wire Line
	7150 4900 7300 4900
Text Notes 6450 5400 0    60   ~ 0
Note: Near OpAmp
$Comp
L PWR_FLAG #FLG0109
U 1 1 55F6393C
P 7950 4150
F 0 "#FLG0109" H 7950 4245 50  0001 C CNN
F 1 "PWR_FLAG" H 7950 4330 50  0000 C CNN
F 2 "" H 7950 4150 60  0000 C CNN
F 3 "" H 7950 4150 60  0000 C CNN
	1    7950 4150
	1    0    0    -1  
$EndComp
$Comp
L PWR_FLAG #FLG0110
U 1 1 55F63AAC
P 7950 4900
F 0 "#FLG0110" H 7950 4995 50  0001 C CNN
F 1 "PWR_FLAG" H 7950 5080 50  0000 C CNN
F 2 "" H 7950 4900 60  0000 C CNN
F 3 "" H 7950 4900 60  0000 C CNN
	1    7950 4900
	1    0    0    -1  
$EndComp
Wire Notes Line
	3700 5350 5450 5350
Wire Notes Line
	5450 5350 5450 2500
Wire Notes Line
	5450 2500 3700 2500
Wire Notes Line
	5850 2250 2750 2250
Wire Notes Line
	3700 2500 3700 5350
Text Notes 4100 2450 0    60   ~ 0
Buffer & Offset
$EndSCHEMATC
