Designator, Package, Quantity, Designation, Comments
U42, LQFP-64_10x10mm_Pitch0.5mm, 1, STM32F072RxTx
"U32, U33", TSSOP-14_4.4x5mm_Pitch0.65mm, 2, TLV274
U1, SOIC-8_3.9x4.9mm_Pitch1.27mm, 1, TLV272
"U7, U3, U40", SOT-23-6, 3, RT9728Bx, see file: MANUF_NOTE
U4, SOT-23, 1, REF303x, NOT MOUNTED
"U5, U41", SOT-23-5, 2, LD3985M3xR/RT9020-33GB
"U43, U28, U29, U30, U31, U6", SOT-323, 6, BAT54SW
U2, SOT-23-6, 1, LM2776

Y1, Crystal_HC49-SD_SMD, 1, 16Mhz

D8, LED-0603, 1, LED_BLUE
"D1, D9", LED-0603, 2, LED_RED

R10, R_0603, 1, 0 Ohm
"R7, R15", R_0603, 2, 1 Ohm
"R8, R9, R11, R12, R14", R_0603, 5, 10 Ohm
"R3, R4, R5, R6, R36, R37, R38, R39, R40, R41, R42, R43", R_0603, 12, 10K
"R48, R50, R52, R54", R_0603, 4, 4.7K, "Analog Input (OpAmp over-votage protection)"
"R49, R51, R53, R55", R_0603, 4, "No Populted", "Note: Future use"
"R60", R_0603, 1, 1M
"R32, R33, R34, R35, R70", R_0603, 5, 220 Ohm
"R24, R25, R26, R27, R28, R29, R30, R31, R13, R71, R72, R1", R_0603, 12, 510 Ohm
"R67, R21", R_0603, 2, 220K
R19, R_0603, 1, 140K
"R17, R18, R63, R64, R16, R20", R_0603, 3, 4.7K, "PU/PD only 3 mounted at a time, see file: MANUF_NOTE"
"R73, R74, R62", R_0603, 3, 4.7K, "BOOT0, I2C pins"

"C1, C2, C7, C8, C23, C34, C35, C38, C46, C47, C48, C49, C58, C59, C60, C61, C67, C92, C94, C99, C100, C104, C105, C106, C3, C4, C9", C_0603, 27, 100nF, X7R
"C5, C6, C11, C15, C18, C19, C24, C54, C55, C56, C57, C14", C_1206, 12, 10uF, X7R
"C12, C103, C98, C13", C_0805, 4, 4.7uF, X7R
"C32, C33, C37, C41, C64, C71, C78, C102, C91, C95, C10, C16, C17, C20, c21, c22", C_0603, 16, 1uF, X7R
"C36, C66, C93, C101", C_0603, 4, 10nF, X7R
"C65, C69", C_0603, 2, 4.7nF, X7R
"C96, C97", C_0603, 2, 27pF, C0G/NP0
"C42, C43, C44, C45", C_0603, 4, 220pF, C0G/NP0

SW1, smd_push2 , 1, DFU, "Push Button, MOM 5.2mm, SMD"

P26, USB_Micro-B, 1, USB_MICRO_B

"P1, P4", female_Header_Straight_2x13, 2, CONN_02X13
P2, Pin_Header_Straight_1x04, 1, DEBUG, NOT MOUNTED
