EESchema Schematic File Version 2
LIBS:STM32F072RxTx
LIBS:tlv274
LIBS:LD3985M3xR
LIBS:BAT54W
LIBS:tlv272
LIBS:REF303x
LIBS:conn
LIBS:power
LIBS:device
LIBS:LM2776
LIBS:logo_madresistor
LIBS:RT9728Bx
LIBS:box0-cache
EELAYER 25 0
EELAYER END
$Descr A4 11693 8268
encoding utf-8
Sheet 4 8
Title "Box0"
Date "03 April 2016"
Rev "0.3"
Comp "Mad Resistor"
Comment1 "Miscellaneous"
Comment2 ""
Comment3 ""
Comment4 ""
$EndDescr
NoConn ~ 3950 2950
$Comp
L C C64
U 1 1 553B100B
P 4700 2850
F 0 "C64" H 4700 2950 40  0000 L CNN
F 1 "1uF" H 4706 2765 40  0000 L CNN
F 2 "Capacitors_SMD:C_0603" H 4738 2700 30  0001 C CNN
F 3 "~" H 4700 2850 60  0000 C CNN
	1    4700 2850
	1    0    0    1   
$EndComp
Text Notes 5600 3650 2    60   ~ 0
Matching already included in \n embedded driver (uC).
Text HLabel 4100 2750 2    60   BiDi ~ 0
USB_D-
Text HLabel 4100 2850 2    60   BiDi ~ 0
USB_D+
$Comp
L GND #PWR038
U 1 1 5552B21E
P 5150 4800
F 0 "#PWR038" H 5150 4800 30  0001 C CNN
F 1 "GND" H 5150 4730 30  0001 C CNN
F 2 "" H 5150 4800 60  0001 C CNN
F 3 "" H 5150 4800 60  0000 C CNN
	1    5150 4800
	1    0    0    -1  
$EndComp
Text Notes 6050 4050 0    60   ~ 0
Connect to enable Bootloader mode.\nThough software based approch could have been done but,\n because of "BadUSB", took Hardware button approch.\nNote: \n - ROM source code isn't Free/OpenSource\n - ROM is immune to firmware corrupt/failure
Text HLabel 5400 4450 0    60   Output ~ 0
SWCLK
Text HLabel 5400 4550 0    60   BiDi ~ 0
SWDIO
Text HLabel 5400 4650 0    60   BiDi ~ 0
NRST
Text HLabel 6550 2800 0    60   Output ~ 0
BOOT0
Text GLabel 5500 2650 2    60   Output ~ 0
VBUS
$Comp
L GND #PWR039
U 1 1 553AD777
P 4700 3050
F 0 "#PWR039" H 4700 3050 30  0001 C CNN
F 1 "GND" H 4700 2980 30  0001 C CNN
F 2 "" H 4700 3050 60  0001 C CNN
F 3 "" H 4700 3050 60  0000 C CNN
	1    4700 3050
	-1   0    0    -1  
$EndComp
$Comp
L GND #PWR040
U 1 1 553EF0FD
P 4050 3150
F 0 "#PWR040" H 4050 3150 30  0001 C CNN
F 1 "GND" H 4050 3080 30  0001 C CNN
F 2 "" H 4050 3150 60  0001 C CNN
F 3 "" H 4050 3150 60  0000 C CNN
	1    4050 3150
	-1   0    0    -1  
$EndComp
$Comp
L R R60
U 1 1 553F30A7
P 3650 3600
F 0 "R60" V 3730 3600 40  0000 C CNN
F 1 "1M" V 3657 3601 40  0000 C CNN
F 2 "Resistors_SMD:R_0603" V 3580 3600 30  0001 C CNN
F 3 "~" H 3650 3600 30  0000 C CNN
	1    3650 3600
	1    0    0    1   
$EndComp
$Comp
L C C65
U 1 1 553F30AD
P 3450 3600
F 0 "C65" H 3450 3700 40  0000 L CNN
F 1 "4.7nF" H 3456 3515 40  0000 L CNN
F 2 "Capacitors_SMD:C_0603" H 3488 3450 30  0001 C CNN
F 3 "~" H 3450 3600 60  0000 C CNN
	1    3450 3600
	-1   0    0    -1  
$EndComp
$Comp
L GND #PWR041
U 1 1 553F30B3
P 3550 4000
F 0 "#PWR041" H 3550 4000 30  0001 C CNN
F 1 "GND" H 3550 3930 30  0001 C CNN
F 2 "" H 3550 4000 60  0001 C CNN
F 3 "" H 3550 4000 60  0000 C CNN
	1    3550 4000
	-1   0    0    -1  
$EndComp
$Comp
L R R62
U 1 1 553FEDFC
P 6650 2950
F 0 "R62" V 6730 2950 40  0000 C CNN
F 1 "4.7K" V 6657 2951 40  0000 C CNN
F 2 "Resistors_SMD:R_0603" V 6580 2950 30  0001 C CNN
F 3 "~" H 6650 2950 30  0000 C CNN
F 4 "PU_PD" V 6650 2950 60  0001 C CNN "GenericValue"
	1    6650 2950
	1    0    0    -1  
$EndComp
$Comp
L GND #PWR042
U 1 1 553FEE09
P 6650 3100
F 0 "#PWR042" H 6650 3100 30  0001 C CNN
F 1 "GND" H 6650 3030 30  0001 C CNN
F 2 "" H 6650 3100 60  0001 C CNN
F 3 "" H 6650 3100 60  0000 C CNN
	1    6650 3100
	1    0    0    -1  
$EndComp
Text GLabel 8200 2800 2    60   Input ~ 0
VDD
$Comp
L C C67
U 1 1 5540A36D
P 5050 2850
F 0 "C67" H 5050 2950 40  0000 L CNN
F 1 "100nF" H 5056 2765 40  0000 L CNN
F 2 "Capacitors_SMD:C_0603" H 5088 2700 30  0001 C CNN
F 3 "~" H 5050 2850 60  0000 C CNN
	1    5050 2850
	-1   0    0    1   
$EndComp
$Comp
L GND #PWR043
U 1 1 5540A373
P 5050 3000
F 0 "#PWR043" H 5050 3000 30  0001 C CNN
F 1 "GND" H 5050 2930 30  0001 C CNN
F 2 "" H 5050 3000 60  0001 C CNN
F 3 "" H 5050 3000 60  0000 C CNN
	1    5050 3000
	1    0    0    -1  
$EndComp
$Comp
L C C66
U 1 1 5540A37F
P 5250 2850
F 0 "C66" H 5250 2950 40  0000 L CNN
F 1 "10nF" H 5256 2765 40  0000 L CNN
F 2 "Capacitors_SMD:C_0603" H 5288 2700 30  0001 C CNN
F 3 "~" H 5250 2850 60  0000 C CNN
	1    5250 2850
	-1   0    0    1   
$EndComp
$Comp
L GND #PWR044
U 1 1 5540A385
P 5250 3000
F 0 "#PWR044" H 5250 3000 30  0001 C CNN
F 1 "GND" H 5250 2930 30  0001 C CNN
F 2 "" H 5250 3000 60  0001 C CNN
F 3 "" H 5250 3000 60  0000 C CNN
	1    5250 3000
	1    0    0    -1  
$EndComp
$Comp
L USB_OTG P26
U 1 1 55AE6D2B
P 3650 2850
F 0 "P26" H 3975 2725 50  0000 C CNN
F 1 "USB_MICRO_B" H 3650 3050 50  0000 C CNN
F 2 "custom:USB_Micro-B" V 3600 2750 60  0001 C CNN
F 3 "" V 3600 2750 60  0000 C CNN
F 4 "Communication" H 3650 2850 60  0001 C CNN "Usage"
	1    3650 2850
	0    -1   1    0   
$EndComp
$Comp
L CONN_01X04 P2
U 1 1 55F81CE7
P 5600 4600
F 0 "P2" H 5600 4850 50  0000 C CNN
F 1 "DEBUG" V 5700 4600 50  0000 C CNN
F 2 "Pin_Headers:Pin_Header_Straight_1x04" H 5600 4600 60  0001 C CNN
F 3 "" H 5600 4600 60  0000 C CNN
	1    5600 4600
	1    0    0    -1  
$EndComp
$Comp
L Switch_DPST SW1
U 1 1 56FC98E4
P 7500 3000
F 0 "SW1" H 7500 3000 50  0000 C CNN
F 1 "DFU" H 7500 2700 50  0000 C CNN
F 2 "custom:smd_push2" H 7500 3000 50  0001 C CNN
F 3 "" H 7500 3000 50  0000 C CNN
	1    7500 3000
	1    0    0    -1  
$EndComp
Wire Wire Line
	5400 4750 5150 4750
Wire Wire Line
	5150 4750 5150 4800
Wire Wire Line
	3950 2650 5500 2650
Wire Wire Line
	3450 3850 3650 3850
Wire Wire Line
	3450 3850 3450 3750
Connection ~ 3550 3850
Wire Wire Line
	3650 3300 3650 3450
Wire Wire Line
	3450 3300 3650 3300
Wire Wire Line
	3450 3300 3450 3450
Wire Wire Line
	3550 3300 3550 3250
Connection ~ 3550 3300
Wire Wire Line
	3550 3850 3550 4000
Wire Wire Line
	4050 3150 4050 3050
Connection ~ 6650 2800
Wire Wire Line
	6550 2800 7200 2800
Wire Wire Line
	3950 2750 4100 2750
Wire Wire Line
	3950 2850 4100 2850
Connection ~ 5250 2650
Connection ~ 5050 2650
Wire Wire Line
	3650 3850 3650 3750
Wire Wire Line
	4700 3050 4700 3000
Wire Wire Line
	4700 2700 4700 2650
Wire Wire Line
	4050 3050 3950 3050
Wire Notes Line
	4950 4250 5850 4250
Wire Wire Line
	7800 2800 8200 2800
Wire Notes Line
	4950 5000 5850 5000
Wire Notes Line
	4950 4250 4950 5000
Wire Notes Line
	5850 5000 5850 4250
Wire Wire Line
	5050 2700 5050 2650
Wire Wire Line
	5250 2700 5250 2650
Connection ~ 4700 2650
Wire Notes Line
	2800 2500 5850 2500
Wire Notes Line
	5850 2500 5850 4150
Wire Notes Line
	5850 4150 2800 4150
Wire Notes Line
	2800 4150 2800 2500
Wire Wire Line
	7800 3200 8100 3200
Wire Wire Line
	8100 3200 8100 2800
Connection ~ 8100 2800
Wire Notes Line
	5950 2500 8800 2500
Wire Notes Line
	8800 2500 8800 4150
Wire Notes Line
	8800 4150 5950 4150
Wire Notes Line
	5950 4150 5950 2500
Wire Wire Line
	7200 3200 6900 3200
Wire Wire Line
	6900 3200 6900 2800
Connection ~ 6900 2800
Wire Notes Line
	3200 3350 3850 3350
Wire Notes Line
	3850 3350 3850 3800
Wire Notes Line
	3850 3800 3200 3800
Wire Notes Line
	3200 3800 3200 3350
$EndSCHEMATC
