EESchema Schematic File Version 2
LIBS:STM32F072RxTx
LIBS:tlv274
LIBS:LD3985M3xR
LIBS:BAT54W
LIBS:tlv272
LIBS:REF303x
LIBS:conn
LIBS:power
LIBS:device
LIBS:LM2776
LIBS:logo_madresistor
LIBS:RT9728Bx
LIBS:box0-cache
EELAYER 25 0
EELAYER END
$Descr A4 11693 8268
encoding utf-8
Sheet 7 8
Title "Box0"
Date "03 April 2016"
Rev "0.3"
Comp "Mad Resistor"
Comment1 "Box0 Interface"
Comment2 ""
Comment3 ""
Comment4 ""
$EndDescr
Text HLabel 4350 2550 0    60   Input ~ 0
UART0.TX
Text HLabel 4350 2650 0    60   Output ~ 0
UART0.RX
Entry Wire Line
	7250 1100 7350 1200
$Comp
L R R24
U 1 1 5545035F
P 5950 1800
F 0 "R24" V 6030 1800 40  0000 C CNN
F 1 "510" V 5957 1801 40  0000 C CNN
F 2 "Resistors_SMD:R_0603" V 5880 1800 30  0001 C CNN
F 3 "~" H 5950 1800 30  0000 C CNN
	1    5950 1800
	-1   0    0    -1  
$EndComp
$Comp
L R R25
U 1 1 5545036C
P 6150 1800
F 0 "R25" V 6230 1800 40  0000 C CNN
F 1 "510" V 6157 1801 40  0000 C CNN
F 2 "Resistors_SMD:R_0603" V 6080 1800 30  0001 C CNN
F 3 "~" H 6150 1800 30  0000 C CNN
	1    6150 1800
	-1   0    0    -1  
$EndComp
$Comp
L R R26
U 1 1 55450372
P 6350 1800
F 0 "R26" V 6430 1800 40  0000 C CNN
F 1 "510" V 6357 1801 40  0000 C CNN
F 2 "Resistors_SMD:R_0603" V 6280 1800 30  0001 C CNN
F 3 "~" H 6350 1800 30  0000 C CNN
	1    6350 1800
	-1   0    0    -1  
$EndComp
$Comp
L R R27
U 1 1 55450378
P 6550 1800
F 0 "R27" V 6630 1800 40  0000 C CNN
F 1 "510" V 6557 1801 40  0000 C CNN
F 2 "Resistors_SMD:R_0603" V 6480 1800 30  0001 C CNN
F 3 "~" H 6550 1800 30  0000 C CNN
	1    6550 1800
	-1   0    0    -1  
$EndComp
$Comp
L R R28
U 1 1 5545037E
P 6750 1800
F 0 "R28" V 6830 1800 40  0000 C CNN
F 1 "510" V 6757 1801 40  0000 C CNN
F 2 "Resistors_SMD:R_0603" V 6680 1800 30  0001 C CNN
F 3 "~" H 6750 1800 30  0000 C CNN
	1    6750 1800
	-1   0    0    -1  
$EndComp
$Comp
L R R29
U 1 1 55450384
P 6950 1800
F 0 "R29" V 7030 1800 40  0000 C CNN
F 1 "510" V 6957 1801 40  0000 C CNN
F 2 "Resistors_SMD:R_0603" V 6880 1800 30  0001 C CNN
F 3 "~" H 6950 1800 30  0000 C CNN
	1    6950 1800
	-1   0    0    -1  
$EndComp
$Comp
L R R30
U 1 1 5545038A
P 7150 1800
F 0 "R30" V 7230 1800 40  0000 C CNN
F 1 "510" V 7157 1801 40  0000 C CNN
F 2 "Resistors_SMD:R_0603" V 7080 1800 30  0001 C CNN
F 3 "~" H 7150 1800 30  0000 C CNN
	1    7150 1800
	-1   0    0    -1  
$EndComp
$Comp
L R R31
U 1 1 55450390
P 7350 1800
F 0 "R31" V 7430 1800 40  0000 C CNN
F 1 "510" V 7357 1801 40  0000 C CNN
F 2 "Resistors_SMD:R_0603" V 7280 1800 30  0001 C CNN
F 3 "~" H 7350 1800 30  0000 C CNN
	1    7350 1800
	-1   0    0    -1  
$EndComp
Entry Wire Line
	7050 1100 7150 1200
Entry Wire Line
	6850 1100 6950 1200
Entry Wire Line
	6650 1100 6750 1200
Entry Wire Line
	6450 1100 6550 1200
Entry Wire Line
	6250 1100 6350 1200
Entry Wire Line
	6050 1100 6150 1200
Entry Wire Line
	5850 1100 5950 1200
Text HLabel 5750 1100 0    60   BiDi ~ 0
DIO0.[0..7]
Text Label 7350 1200 3    60   ~ 0
DIO0.7
Text Label 7150 1200 3    60   ~ 0
DIO0.6
Text Label 6950 1200 3    60   ~ 0
DIO0.5
Text Label 6750 1200 3    60   ~ 0
DIO0.4
Text Label 6550 1200 3    60   ~ 0
DIO0.3
Text Label 6350 1200 3    60   ~ 0
DIO0.2
Text Label 6150 1200 3    60   ~ 0
DIO0.1
Text Label 5950 1200 3    60   ~ 0
DIO0.0
Text HLabel 4350 1850 0    60   Output ~ 0
SPI0.MISO
Text HLabel 4350 1950 0    60   BiDi ~ 0
SPI0.MOSI
Text HLabel 4850 1750 2    60   Input ~ 0
PWM0.0
Text HLabel 2300 1400 2    60   Input ~ 0
SPI0.SS[0..3]
Entry Wire Line
	2350 1950 2250 1850
Entry Wire Line
	2350 1850 2250 1750
Entry Wire Line
	2350 1750 2250 1650
Text Label 2750 1950 2    60   ~ 0
SPI0.SS3
Text HLabel 4350 1750 0    60   Input ~ 0
SPI0.SCLK
Text Label 3400 2050 0    60   ~ 0
SPI0.SS0
Text Label 3400 2150 0    60   ~ 0
SPI0.SS1
Text Label 3400 2250 0    60   ~ 0
SPI0.SS2
Text Label 3400 2350 0    60   ~ 0
SPI0.SS3
Text HLabel 4850 1850 2    60   Input ~ 0
PWM1.0
Text GLabel 4850 2950 2    60   Input ~ 0
DIGITAL_EXT
Text HLabel 4350 2950 0    60   BiDi ~ 0
I2C0.SDA
Text HLabel 4350 2850 0    60   Input ~ 0
I2C0.SCL
$Comp
L R R74
U 1 1 55AF6BBE
P 2850 2600
F 0 "R74" V 2930 2600 40  0000 C CNN
F 1 "4.7K" V 2857 2601 40  0000 C CNN
F 2 "Resistors_SMD:R_0603" V 2780 2600 30  0001 C CNN
F 3 "~" H 2850 2600 30  0000 C CNN
	1    2850 2600
	1    0    0    -1  
$EndComp
$Comp
L R R73
U 1 1 55AF6BC5
P 3050 2600
F 0 "R73" V 3130 2600 40  0000 C CNN
F 1 "4.7K" V 3057 2601 40  0000 C CNN
F 2 "Resistors_SMD:R_0603" V 2980 2600 30  0001 C CNN
F 3 "~" H 3050 2600 30  0000 C CNN
	1    3050 2600
	1    0    0    -1  
$EndComp
Text GLabel 2850 2250 0    60   Input ~ 0
DIGITAL_EXT
Text HLabel 2700 3000 0    60   BiDi ~ 0
I2C0.SDA
Text HLabel 2700 2850 0    60   Input ~ 0
I2C0.SCL
$Comp
L CONN_02X13 P1
U 1 1 55FEABF1
P 4600 2350
F 0 "P1" H 4600 3050 50  0000 C CNN
F 1 "DIGITAL" V 4600 2350 50  0000 C CNN
F 2 "Pin_Headers:Pin_Header_Straight_2x13" H 4600 1200 60  0001 C CNN
F 3 "" H 4600 1200 60  0000 C CNN
	1    4600 2350
	1    0    0    -1  
$EndComp
Text GLabel 4600 4300 0    60   Input ~ 0
ANALOG_NEG
Text GLabel 4600 4200 0    60   Input ~ 0
ANALOG_POS
Text HLabel 2500 5100 2    60   Output ~ 0
AIN0.[0..3]
Entry Wire Line
	2350 5250 2450 5350
Entry Wire Line
	2350 5350 2450 5450
Entry Wire Line
	2350 5450 2450 5550
Entry Wire Line
	2350 5550 2450 5650
Text Label 2800 5350 2    60   ~ 0
AIN0.0
Text Label 2800 5450 2    60   ~ 0
AIN0.1
Text Label 2800 5550 2    60   ~ 0
AIN0.2
Text Label 2800 5650 2    60   ~ 0
AIN0.3
Text HLabel 2500 4250 2    60   Input ~ 0
AOUT0.[0..1]
Entry Wire Line
	2350 4400 2450 4500
Entry Wire Line
	2350 4500 2450 4600
Text Label 2900 4500 2    60   ~ 0
AOUT0.0
Text Label 2900 4600 2    60   ~ 0
AOUT0.1
Text Label 4000 5100 0    60   ~ 0
AIN0.0
Text Label 4000 5200 0    60   ~ 0
AIN0.1
Text Label 4000 5300 0    60   ~ 0
AIN0.2
Text Label 4000 5400 0    60   ~ 0
AIN0.3
Text Notes 8350 4300 0    60   ~ 0
Current limit = 10 mA
$Comp
L R R13
U 1 1 55FF0462
P 8650 3650
F 0 "R13" V 8730 3650 40  0000 C CNN
F 1 "510" V 8657 3651 40  0000 C CNN
F 2 "Resistors_SMD:R_0603" V 8580 3650 30  0001 C CNN
F 3 "~" H 8650 3650 30  0000 C CNN
	1    8650 3650
	0    -1   -1   0   
$EndComp
$Comp
L GND #PWR095
U 1 1 55FF0469
P 8900 3950
F 0 "#PWR095" H 8900 3950 30  0001 C CNN
F 1 "GND" H 8900 3880 30  0001 C CNN
F 2 "" H 8900 3950 60  0001 C CNN
F 3 "" H 8900 3950 60  0000 C CNN
	1    8900 3950
	1    0    0    -1  
$EndComp
Text GLabel 8400 3650 0    60   Input ~ 0
VDDA
$Comp
L PWR_FLAG #FLG096
U 1 1 55FF0470
P 8900 3650
F 0 "#FLG096" H 8900 3745 30  0001 C CNN
F 1 "PWR_FLAG" H 8900 3830 30  0000 C CNN
F 2 "" H 8900 3650 60  0001 C CNN
F 3 "" H 8900 3650 60  0000 C CNN
	1    8900 3650
	1    0    0    -1  
$EndComp
$Comp
L C C4
U 1 1 55FF0477
P 6200 5050
F 0 "C4" H 6225 5150 50  0000 L CNN
F 1 "100nF" H 6225 4950 50  0000 L CNN
F 2 "Capacitors_SMD:C_0603" H 6238 4900 30  0001 C CNN
F 3 "" H 6200 5050 60  0000 C CNN
	1    6200 5050
	1    0    0    -1  
$EndComp
$Comp
L GND #PWR097
U 1 1 55FF047E
P 6200 5200
F 0 "#PWR097" H 6200 4950 50  0001 C CNN
F 1 "GND" H 6200 5050 50  0000 C CNN
F 2 "" H 6200 5200 60  0000 C CNN
F 3 "" H 6200 5200 60  0000 C CNN
	1    6200 5200
	1    0    0    -1  
$EndComp
$Comp
L C C9
U 1 1 55FF0485
P 6550 5050
F 0 "C9" H 6575 5150 50  0000 L CNN
F 1 "100nF" H 6575 4950 50  0000 L CNN
F 2 "Capacitors_SMD:C_0603" H 6588 4900 30  0001 C CNN
F 3 "" H 6550 5050 60  0000 C CNN
	1    6550 5050
	1    0    0    -1  
$EndComp
$Comp
L GND #PWR098
U 1 1 55FF048C
P 6550 5200
F 0 "#PWR098" H 6550 4950 50  0001 C CNN
F 1 "GND" H 6550 5050 50  0000 C CNN
F 2 "" H 6550 5200 60  0000 C CNN
F 3 "" H 6550 5200 60  0000 C CNN
	1    6550 5200
	1    0    0    -1  
$EndComp
Text GLabel 6700 4750 2    60   Input ~ 0
ANALOG_POS
Text GLabel 6700 4900 2    60   Input ~ 0
ANALOG_NEG
$Comp
L C C3
U 1 1 55FF0498
P 8900 3800
F 0 "C3" H 8900 3900 40  0000 L CNN
F 1 "100nF" H 8906 3715 40  0000 L CNN
F 2 "Capacitors_SMD:C_0603" H 8938 3650 30  0001 C CNN
F 3 "~" H 8900 3800 60  0000 C CNN
	1    8900 3800
	1    0    0    -1  
$EndComp
$Comp
L CONN_02X13 P4
U 1 1 55FF049F
P 4850 4800
F 0 "P4" H 4850 5500 50  0000 C CNN
F 1 "ANALOG" V 4850 4800 50  0000 C CNN
F 2 "Pin_Headers:Pin_Header_Straight_2x13" H 4850 3650 60  0001 C CNN
F 3 "" H 4850 3650 60  0000 C CNN
	1    4850 4800
	1    0    0    -1  
$EndComp
Text Label 9600 3650 2    60   ~ 0
VREF_EXT
Text Label 4000 4700 0    60   ~ 0
AOUT0.0
Text Label 4000 4800 0    60   ~ 0
AOUT0.1
Text Label 4000 4500 0    60   ~ 0
VREF_EXT
$Comp
L GND #PWR099
U 1 1 55FFAE37
P 3800 5600
F 0 "#PWR099" H 3800 5350 50  0001 C CNN
F 1 "GND" H 3800 5450 50  0000 C CNN
F 2 "" H 3800 5600 60  0000 C CNN
F 3 "" H 3800 5600 60  0000 C CNN
	1    3800 5600
	1    0    0    -1  
$EndComp
$Comp
L GND #PWR0100
U 1 1 55FFAE79
P 5850 5600
F 0 "#PWR0100" H 5850 5350 50  0001 C CNN
F 1 "GND" H 5850 5450 50  0000 C CNN
F 2 "" H 5850 5600 60  0000 C CNN
F 3 "" H 5850 5600 60  0000 C CNN
	1    5850 5600
	1    0    0    -1  
$EndComp
$Comp
L GND #PWR0101
U 1 1 55FFB2D7
P 5600 3250
F 0 "#PWR0101" H 5600 3000 50  0001 C CNN
F 1 "GND" H 5600 3100 50  0000 C CNN
F 2 "" H 5600 3250 60  0000 C CNN
F 3 "" H 5600 3250 60  0000 C CNN
	1    5600 3250
	1    0    0    -1  
$EndComp
Wire Wire Line
	5950 2050 4850 2050
Wire Wire Line
	6150 2150 4850 2150
Wire Wire Line
	6350 2250 4850 2250
Wire Wire Line
	6550 2350 4850 2350
Wire Wire Line
	6750 2450 4850 2450
Wire Wire Line
	6950 2550 4850 2550
Wire Wire Line
	7150 2650 4850 2650
Wire Wire Line
	7350 2750 4850 2750
Wire Bus Line
	5750 1100 7250 1100
Wire Wire Line
	7350 1200 7350 1650
Wire Wire Line
	7150 1200 7150 1650
Wire Wire Line
	6950 1200 6950 1650
Wire Wire Line
	6750 1200 6750 1650
Wire Wire Line
	6550 1200 6550 1650
Wire Wire Line
	6350 1200 6350 1650
Wire Wire Line
	6150 1650 6150 1200
Wire Wire Line
	5950 1650 5950 1200
Wire Wire Line
	2750 1850 2350 1850
Wire Wire Line
	2750 1950 2350 1950
Wire Wire Line
	4350 2050 3400 2050
Wire Wire Line
	4350 2150 3400 2150
Wire Wire Line
	4350 2250 3400 2250
Wire Wire Line
	4350 2350 3400 2350
Wire Wire Line
	3050 2750 3050 3000
Wire Wire Line
	2950 2250 2950 2350
Wire Wire Line
	2850 2350 3050 2350
Wire Wire Line
	2850 2350 2850 2450
Wire Wire Line
	3050 2350 3050 2450
Connection ~ 2950 2350
Wire Wire Line
	2850 2750 2850 2850
Wire Wire Line
	2850 2850 2700 2850
Wire Wire Line
	3050 3000 2700 3000
Wire Bus Line
	2300 1400 2250 1400
Wire Wire Line
	2850 2250 2950 2250
Wire Wire Line
	2900 4500 2450 4500
Wire Wire Line
	2900 4600 2450 4600
Wire Bus Line
	2350 5100 2350 5550
Wire Bus Line
	2350 5100 2500 5100
Wire Wire Line
	2450 5650 2800 5650
Wire Wire Line
	2800 5550 2450 5550
Wire Wire Line
	2450 5450 2800 5450
Wire Wire Line
	2800 5350 2450 5350
Wire Bus Line
	2350 4250 2350 4500
Wire Bus Line
	2350 4250 2500 4250
Wire Wire Line
	4600 5100 4000 5100
Wire Wire Line
	4600 5200 4000 5200
Wire Wire Line
	4600 5300 4000 5300
Wire Wire Line
	4600 5400 4000 5400
Wire Wire Line
	8400 3650 8500 3650
Wire Wire Line
	6200 4750 6700 4750
Wire Wire Line
	6550 4900 6700 4900
Wire Wire Line
	6200 4900 6200 4750
Wire Wire Line
	8800 3650 9600 3650
Connection ~ 8900 3650
Wire Wire Line
	4000 4700 4600 4700
Wire Wire Line
	4000 4800 4600 4800
Wire Wire Line
	4600 4500 4000 4500
Wire Wire Line
	5850 4400 5100 4400
Wire Wire Line
	5850 4200 5850 5600
Wire Wire Line
	5100 5300 5850 5300
Connection ~ 5850 5300
Wire Wire Line
	5100 5200 5850 5200
Connection ~ 5850 5200
Wire Wire Line
	5100 5000 5850 5000
Connection ~ 5850 5000
Wire Wire Line
	5100 4900 5850 4900
Connection ~ 5850 4900
Wire Wire Line
	5100 4800 5850 4800
Connection ~ 5850 4800
Wire Wire Line
	5100 4700 5850 4700
Connection ~ 5850 4700
Wire Wire Line
	5100 4600 5850 4600
Connection ~ 5850 4600
Wire Wire Line
	3800 4600 4600 4600
Connection ~ 3800 4900
Connection ~ 3800 5000
Wire Wire Line
	4850 2850 5600 2850
Wire Wire Line
	5600 1950 5600 3250
Wire Wire Line
	4850 1950 5600 1950
Connection ~ 5600 2850
Wire Wire Line
	4350 2450 3750 2450
Wire Wire Line
	3750 2450 3750 3300
Wire Wire Line
	4350 2750 3750 2750
Connection ~ 3750 2750
$Comp
L GND #PWR0102
U 1 1 55FFB704
P 3750 3300
F 0 "#PWR0102" H 3750 3050 50  0001 C CNN
F 1 "GND" H 3750 3150 50  0000 C CNN
F 2 "" H 3750 3300 60  0000 C CNN
F 3 "" H 3750 3300 60  0000 C CNN
	1    3750 3300
	1    0    0    -1  
$EndComp
Wire Wire Line
	5100 5100 5850 5100
Connection ~ 5850 5100
Wire Wire Line
	5100 5400 5850 5400
Connection ~ 5850 5400
Wire Wire Line
	3800 4900 4600 4900
Wire Wire Line
	3800 5000 4600 5000
Connection ~ 3800 4600
Wire Wire Line
	4600 4400 3800 4400
Connection ~ 3800 4400
Wire Wire Line
	3800 4400 3800 5600
Wire Wire Line
	5100 4200 5850 4200
Connection ~ 5850 4400
Wire Wire Line
	5100 4300 5850 4300
Connection ~ 5850 4300
Wire Wire Line
	5100 4500 5850 4500
Connection ~ 5850 4500
Wire Notes Line
	8050 3300 9750 3300
Wire Notes Line
	9750 3300 9750 4350
Wire Notes Line
	9750 4350 8050 4350
Wire Notes Line
	8050 4350 8050 3300
Wire Notes Line
	2050 3900 7550 3900
Wire Notes Line
	7550 3900 7550 6050
Wire Notes Line
	7550 6050 2050 6050
Wire Notes Line
	2050 6050 2050 3900
Text Label 2750 1850 2    60   ~ 0
SPI0.SS2
Wire Wire Line
	2750 1750 2350 1750
Text Label 2750 1750 2    60   ~ 0
SPI0.SS1
Wire Wire Line
	2750 1650 2350 1650
Text Label 2750 1650 2    60   ~ 0
SPI0.SS0
Entry Wire Line
	2350 1650 2250 1550
Wire Bus Line
	2250 1400 2250 1850
Wire Wire Line
	5950 1950 5950 2050
Wire Wire Line
	6150 2150 6150 1950
Wire Wire Line
	6350 1950 6350 2250
Wire Wire Line
	6550 2350 6550 1950
Wire Wire Line
	6750 2450 6750 1950
Wire Wire Line
	6950 2550 6950 1950
Wire Wire Line
	7150 2650 7150 1950
Wire Wire Line
	7350 2750 7350 1950
Wire Notes Line
	2050 3600 2050 900 
Wire Notes Line
	2050 900  7550 900 
Wire Notes Line
	7550 900  7550 3600
Wire Notes Line
	7550 3600 2050 3600
$EndSCHEMATC
