(module LOGO (layer F.Cu)
  (at 0 0)
 (fp_text reference "G***" (at 0 0) (layer F.SilkS) hide
  (effects (font (thickness 0.3)))
  )
  (fp_text value "LOGO" (at 0.75 0) (layer F.SilkS) hide
  (effects (font (thickness 0.3)))
  )
  (fp_poly (pts (xy 13.847971 6.090228) (xy 13.878700 6.096000) (xy 13.911197 6.129283) (xy 13.895297 6.237208) (xy 13.826030 6.431887) (xy 13.698426 6.725433) (xy 13.507516 7.129958) (xy 13.248327 7.657574)
     (xy 13.189442 7.775763) (xy 12.971149 8.208983) (xy 12.775035 8.590370) (xy 12.612056 8.899256) (xy 12.493167 9.114970) (xy 12.429322 9.216844) (xy 12.422842 9.222154) (xy 12.331686 9.179766)
     (xy 12.252817 9.124461) (xy 12.217389 9.079348) (xy 12.210151 9.005476) (xy 12.238017 8.884663) (xy 12.307904 8.698727) (xy 12.426724 8.429485) (xy 12.601393 8.058754) (xy 12.838826 7.568352)
     (xy 12.864999 7.514671) (xy 13.121688 6.994338) (xy 13.322249 6.602777) (xy 13.474742 6.326244) (xy 13.587227 6.150991) (xy 13.667765 6.063271) (xy 13.724281 6.049286) (xy 13.847971 6.090228) )(layer F.SilkS) (width  0.010000)
  )
  (fp_poly (pts (xy -21.626749 6.933186) (xy -21.449927 7.082167) (xy -21.411389 7.158347) (xy -21.380267 7.316882) (xy -21.355396 7.589500) (xy -21.339797 7.934008) (xy -21.336000 8.211242) (xy -21.336000 9.065846)
     (xy -21.531384 9.065846) (xy -21.620967 9.060866) (xy -21.677922 9.026657) (xy -21.709701 8.934320) (xy -21.723755 8.754952) (xy -21.727534 8.459653) (xy -21.727836 8.303846) (xy -21.735216 7.826326)
     (xy -21.758693 7.492226) (xy -21.802601 7.289102) (xy -21.871274 7.204509) (xy -21.969045 7.226002) (xy -22.072879 7.312967) (xy -22.131669 7.408126) (xy -22.169233 7.571367) (xy -22.189316 7.831293)
     (xy -22.195665 8.216504) (xy -22.195692 8.250813) (xy -22.196934 8.614479) (xy -22.204929 8.849779) (xy -22.226079 8.984654) (xy -22.266784 9.047045) (xy -22.333448 9.064893) (xy -22.382431 9.065846)
     (xy -22.464265 9.060015) (xy -22.519005 9.024373) (xy -22.553516 8.931698) (xy -22.574663 8.754764) (xy -22.589308 8.466351) (xy -22.598501 8.208915) (xy -22.623441 7.749947) (xy -22.664370 7.436300)
     (xy -22.725399 7.257438) (xy -22.810639 7.202826) (xy -22.924201 7.261929) (xy -22.956307 7.292044) (xy -23.021835 7.392270) (xy -23.067477 7.558175) (xy -23.098290 7.819070) (xy -23.119332 8.204263)
     (xy -23.120921 8.246079) (xy -23.137021 8.613402) (xy -23.156626 8.851737) (xy -23.185657 8.988386) (xy -23.230035 9.050650) (xy -23.295681 9.065832) (xy -23.298710 9.065846) (xy -23.358024 9.055499)
     (xy -23.398915 9.008247) (xy -23.424779 8.899772) (xy -23.439010 8.705756) (xy -23.445001 8.401882) (xy -23.446154 8.009528) (xy -23.446154 6.953209) (xy -23.231230 6.956784) (xy -22.988662 6.943100)
     (xy -22.777400 6.912294) (xy -22.550990 6.909718) (xy -22.440808 6.981931) (xy -22.355378 7.054652) (xy -22.249566 7.039953) (xy -22.128246 6.976313) (xy -21.867727 6.894125) (xy -21.626749 6.933186) )(layer F.SilkS) (width  0.010000)
  )
  (fp_poly (pts (xy -19.623255 6.978887) (xy -19.514955 7.025513) (xy -19.358186 7.149767) (xy -19.249967 7.342294) (xy -19.183592 7.627002) (xy -19.152356 8.027800) (xy -19.147692 8.335047) (xy -19.149105 8.675753)
     (xy -19.158602 8.889663) (xy -19.184075 9.006287) (xy -19.233413 9.055136) (xy -19.314506 9.065720) (xy -19.343077 9.065846) (xy -19.498036 9.026612) (xy -19.538461 8.953250) (xy -19.557049 8.884453)
     (xy -19.640149 8.897606) (xy -19.753384 8.952769) (xy -20.067822 9.052356) (xy -20.403223 9.057225) (xy -20.699577 8.970910) (xy -20.819626 8.890000) (xy -20.967644 8.728160) (xy -21.029602 8.553929)
     (xy -21.031177 8.427734) (xy -20.632615 8.427734) (xy -20.568513 8.618666) (xy -20.400923 8.729282) (xy -20.166919 8.747637) (xy -19.904554 8.662311) (xy -19.664305 8.473541) (xy -19.547870 8.242740)
     (xy -19.540947 8.176547) (xy -19.555656 8.092697) (xy -19.628622 8.058583) (xy -19.797432 8.065485) (xy -19.942749 8.083339) (xy -20.304325 8.150914) (xy -20.526295 8.243053) (xy -20.624467 8.367649)
     (xy -20.632615 8.427734) (xy -21.031177 8.427734) (xy -21.032644 8.310220) (xy -20.948686 8.130041) (xy -20.734276 7.970954) (xy -20.415097 7.846700) (xy -20.026923 7.772139) (xy -19.774246 7.736282)
     (xy -19.597767 7.697186) (xy -19.538461 7.666372) (xy -19.578889 7.571622) (xy -19.665111 7.434885) (xy -19.775360 7.318514) (xy -19.921602 7.279296) (xy -20.114496 7.290763) (xy -20.363571 7.327768)
     (xy -20.570713 7.372797) (xy -20.602299 7.382334) (xy -20.755001 7.388087) (xy -20.814709 7.313837) (xy -20.799505 7.174856) (xy -20.663960 7.058714) (xy -20.443318 6.973228) (xy -20.172824 6.926216)
     (xy -19.887722 6.925496) (xy -19.623255 6.978887) )(layer F.SilkS) (width  0.010000)
  )
  (fp_poly (pts (xy -16.764000 6.017947) (xy -16.764000 9.065921) (xy -16.978923 9.065883) (xy -17.152253 9.027277) (xy -17.193846 8.944184) (xy -17.207973 8.866211) (xy -17.278020 8.884563) (xy -17.367543 8.944184)
     (xy -17.562083 9.025589) (xy -17.810367 9.065129) (xy -17.844282 9.065846) (xy -18.076261 9.036749) (xy -18.272933 8.927522) (xy -18.413046 8.800123) (xy -18.578600 8.600891) (xy -18.669630 8.385663)
     (xy -18.698608 8.107222) (xy -18.689917 7.922390) (xy -18.288000 7.922390) (xy -18.244248 8.261796) (xy -18.125535 8.524684) (xy -17.950672 8.686870) (xy -17.738472 8.724170) (xy -17.675915 8.709267)
     (xy -17.532406 8.677168) (xy -17.502076 8.675077) (xy -17.411084 8.607395) (xy -17.313507 8.440107) (xy -17.233576 8.226847) (xy -17.195517 8.021248) (xy -17.194913 7.995112) (xy -17.231908 7.655912)
     (xy -17.348170 7.428517) (xy -17.512003 7.304519) (xy -17.783583 7.232473) (xy -18.016128 7.298821) (xy -18.188419 7.486667) (xy -18.279238 7.779117) (xy -18.288000 7.922390) (xy -18.689917 7.922390)
     (xy -18.683106 7.777562) (xy -18.593185 7.433913) (xy -18.404869 7.156910) (xy -18.148545 6.964533) (xy -17.854600 6.874759) (xy -17.553418 6.905565) (xy -17.367543 6.999201) (xy -17.193846 7.120863)
     (xy -17.193846 6.569355) (xy -17.191531 6.282251) (xy -17.175760 6.117488) (xy -17.133295 6.041096) (xy -17.050897 6.019107) (xy -16.978923 6.017897) (xy -16.764000 6.017947) )(layer F.SilkS) (width  0.010000)
  )
  (fp_poly (pts (xy -14.826627 6.904661) (xy -14.533315 6.969388) (xy -14.383606 7.077162) (xy -14.368714 7.236248) (xy -14.395728 7.310018) (xy -14.471050 7.437231) (xy -14.559555 7.435530) (xy -14.643199 7.382237)
     (xy -14.916085 7.274825) (xy -15.191682 7.308925) (xy -15.416363 7.468766) (xy -15.550555 7.647514) (xy -15.634620 7.840053) (xy -15.680304 8.090501) (xy -15.699354 8.442976) (xy -15.701132 8.538308)
     (xy -15.708524 8.817868) (xy -15.729205 8.975780) (xy -15.776521 9.046701) (xy -15.863823 9.065289) (xy -15.904307 9.065846) (xy -16.099692 9.065846) (xy -16.099692 6.955692) (xy -15.867683 6.955692)
     (xy -15.705206 6.977152) (xy -15.672946 7.049917) (xy -15.678675 7.067749) (xy -15.671963 7.121383) (xy -15.567819 7.094520) (xy -15.422222 7.023743) (xy -15.060858 6.904435) (xy -14.826627 6.904661) )(layer F.SilkS) (width  0.010000)
  )
  (fp_poly (pts (xy -12.717209 6.916941) (xy -12.433433 7.040627) (xy -12.206639 7.256030) (xy -12.066447 7.557288) (xy -12.035692 7.811503) (xy -12.035692 8.049846) (xy -12.778154 8.049846) (xy -13.125269 8.052840)
     (xy -13.344560 8.065367) (xy -13.464453 8.092747) (xy -13.513375 8.140297) (xy -13.520615 8.188764) (xy -13.451993 8.430401) (xy -13.272241 8.611081) (xy -13.020526 8.712764) (xy -12.736017 8.717414)
     (xy -12.525735 8.646922) (xy -12.338649 8.574275) (xy -12.222672 8.599799) (xy -12.203626 8.616559) (xy -12.123345 8.734357) (xy -12.166097 8.834047) (xy -12.344426 8.946608) (xy -12.688951 9.049267)
     (xy -13.074977 9.049083) (xy -13.429780 8.948506) (xy -13.505780 8.907535) (xy -13.753981 8.674390) (xy -13.925791 8.350965) (xy -13.989538 7.998877) (xy -13.955308 7.797233) (xy -13.896868 7.625672)
     (xy -13.520615 7.625672) (xy -13.483294 7.687039) (xy -13.353590 7.722076) (xy -13.104888 7.736211) (xy -12.973538 7.737231) (xy -12.677462 7.726256) (xy -12.486451 7.695995) (xy -12.426461 7.655524)
     (xy -12.487086 7.525130) (xy -12.632395 7.372179) (xy -12.807538 7.244561) (xy -12.957669 7.190167) (xy -12.959446 7.190154) (xy -13.131449 7.239636) (xy -13.319354 7.359253) (xy -13.467437 7.505759)
     (xy -13.520615 7.625672) (xy -13.896868 7.625672) (xy -13.869446 7.545171) (xy -13.829776 7.456556) (xy -13.614252 7.154779) (xy -13.337237 6.968157) (xy -13.028350 6.890831) (xy -12.717209 6.916941) )(layer F.SilkS) (width  0.010000)
  )
  (fp_poly (pts (xy -10.188156 6.946356) (xy -10.057658 6.993585) (xy -9.829409 7.105646) (xy -9.738496 7.209586) (xy -9.770613 7.335192) (xy -9.845203 7.436013) (xy -9.950035 7.535377) (xy -10.000403 7.531337)
     (xy -10.001092 7.524315) (xy -10.069888 7.422213) (xy -10.234008 7.312232) (xy -10.437221 7.224759) (xy -10.619459 7.190154) (xy -10.798875 7.243374) (xy -10.899577 7.315665) (xy -10.973766 7.448582)
     (xy -10.909578 7.569249) (xy -10.700519 7.684179) (xy -10.446530 7.770007) (xy -10.078956 7.897973) (xy -9.845308 8.035251) (xy -9.723459 8.200070) (xy -9.691077 8.392347) (xy -9.757958 8.681788)
     (xy -9.956401 8.889646) (xy -10.283104 9.013357) (xy -10.532301 9.045687) (xy -10.894784 9.041784) (xy -11.174136 8.969212) (xy -11.249499 8.933365) (xy -11.459434 8.803082) (xy -11.534642 8.685593)
     (xy -11.489555 8.546957) (xy -11.442379 8.479692) (xy -11.347979 8.375221) (xy -11.286837 8.394556) (xy -11.249037 8.454292) (xy -11.080387 8.609877) (xy -10.826070 8.696773) (xy -10.542943 8.710472)
     (xy -10.287864 8.646465) (xy -10.146617 8.541721) (xy -10.106163 8.431286) (xy -10.184377 8.324552) (xy -10.393319 8.212189) (xy -10.731383 8.089293) (xy -11.081339 7.951379) (xy -11.296033 7.801282)
     (xy -11.396393 7.620723) (xy -11.410461 7.496239) (xy -11.341725 7.237966) (xy -11.155360 7.042782) (xy -10.881133 6.921745) (xy -10.548809 6.885917) (xy -10.188156 6.946356) )(layer F.SilkS) (width  0.010000)
  )
  (fp_poly (pts (xy -8.049846 8.675077) (xy -7.776307 8.675077) (xy -7.591325 8.689675) (xy -7.515596 8.755366) (xy -7.502769 8.870461) (xy -7.507925 8.960976) (xy -7.542912 9.018062) (xy -7.637008 9.049424)
     (xy -7.819492 9.062767) (xy -8.119643 9.065797) (xy -8.245230 9.065846) (xy -8.589186 9.064489) (xy -8.806113 9.055282) (xy -8.925289 9.030520) (xy -8.975993 8.982498) (xy -8.987504 8.903511)
     (xy -8.987692 8.870461) (xy -8.967255 8.738331) (xy -8.875288 8.684239) (xy -8.714154 8.675077) (xy -8.440615 8.675077) (xy -8.440615 7.268308) (xy -8.714154 7.268308) (xy -8.902682 7.250823)
     (xy -8.978751 7.182564) (xy -8.987692 7.112000) (xy -8.970582 7.024699) (xy -8.895421 6.977526) (xy -8.726464 6.958566) (xy -8.518769 6.955692) (xy -8.049846 6.955692) (xy -8.049846 8.675077) )(layer F.SilkS) (width  0.010000)
  )
  (fp_poly (pts (xy -5.427136 6.957592) (xy -5.150745 7.102283) (xy -5.033956 7.215992) (xy -5.033516 7.314986) (xy -5.093941 7.412445) (xy -5.187164 7.528354) (xy -5.260960 7.519688) (xy -5.349491 7.429087)
     (xy -5.569380 7.277765) (xy -5.836282 7.216176) (xy -6.079647 7.259840) (xy -6.091416 7.265854) (xy -6.231584 7.385181) (xy -6.217313 7.507479) (xy -6.050336 7.629180) (xy -5.881077 7.699193)
     (xy -5.550178 7.818487) (xy -5.333870 7.906228) (xy -5.198578 7.980654) (xy -5.110728 8.060002) (xy -5.041490 8.155242) (xy -4.956634 8.409136) (xy -5.015257 8.660889) (xy -5.207614 8.877476)
     (xy -5.266185 8.916682) (xy -5.564874 9.025852) (xy -5.933497 9.058397) (xy -6.305377 9.013653) (xy -6.545384 8.929438) (xy -6.731727 8.818935) (xy -6.790456 8.711243) (xy -6.741832 8.558515)
     (xy -6.720138 8.516728) (xy -6.662473 8.430654) (xy -6.590315 8.421077) (xy -6.458274 8.493531) (xy -6.357540 8.560943) (xy -6.149895 8.680762) (xy -5.973110 8.747968) (xy -5.932463 8.753231)
     (xy -5.727169 8.717352) (xy -5.540128 8.629551) (xy -5.423478 8.519578) (xy -5.409106 8.454597) (xy -5.446736 8.365529) (xy -5.539712 8.285297) (xy -5.716823 8.197124) (xy -6.006853 8.084230)
     (xy -6.107070 8.047761) (xy -6.386029 7.929315) (xy -6.552479 7.805708) (xy -6.643899 7.657091) (xy -6.698712 7.464562) (xy -6.658638 7.307875) (xy -6.613606 7.232924) (xy -6.403411 7.042651)
     (xy -6.103531 6.930474) (xy -5.762071 6.900689) (xy -5.427136 6.957592) )(layer F.SilkS) (width  0.010000)
  )
  (fp_poly (pts (xy -3.465589 6.399811) (xy -3.440596 6.573051) (xy -3.438769 6.643077) (xy -3.431249 6.843176) (xy -3.378606 6.932090) (xy -3.235719 6.954940) (xy -3.126154 6.955692) (xy -2.921629 6.968800)
     (xy -2.831237 7.021779) (xy -2.813538 7.112000) (xy -2.836549 7.209680) (xy -2.932100 7.255870) (xy -3.139965 7.268248) (xy -3.165230 7.268308) (xy -3.516923 7.268308) (xy -3.516923 7.877908)
     (xy -3.504540 8.221111) (xy -3.470124 8.467379) (xy -3.423138 8.581292) (xy -3.252863 8.660126) (xy -3.031832 8.664909) (xy -2.846689 8.596113) (xy -2.825915 8.578038) (xy -2.728663 8.524837)
     (xy -2.655173 8.597576) (xy -2.586163 8.772658) (xy -2.651959 8.895832) (xy -2.825201 8.980047) (xy -3.147085 9.051171) (xy -3.458411 9.051410) (xy -3.689692 8.983154) (xy -3.828674 8.816793)
     (xy -3.914987 8.522773) (xy -3.944323 8.122069) (xy -3.930478 7.810515) (xy -3.885022 7.268308) (xy -4.130818 7.268308) (xy -4.307455 7.246185) (xy -4.372610 7.162557) (xy -4.376615 7.112000)
     (xy -4.338033 6.995899) (xy -4.196413 6.956677) (xy -4.150851 6.955692) (xy -3.991737 6.933244) (xy -3.911469 6.834857) (xy -3.875187 6.689700) (xy -3.775982 6.448166) (xy -3.592982 6.338135)
     (xy -3.510531 6.330461) (xy -3.465589 6.399811) )(layer F.SilkS) (width  0.010000)
  )
  (fp_poly (pts (xy -0.684731 7.021225) (xy -0.451756 7.182726) (xy -0.307792 7.332614) (xy -0.227055 7.493643) (xy -0.185566 7.724922) (xy -0.173186 7.869390) (xy -0.188253 8.319800) (xy -0.309155 8.660140)
     (xy -0.539186 8.898314) (xy -0.622672 8.947292) (xy -0.981310 9.052285) (xy -1.368316 9.035632) (xy -1.704549 8.907535) (xy -1.969261 8.661315) (xy -2.130613 8.333355) (xy -2.169684 8.041929)
     (xy -1.714359 8.041929) (xy -1.652212 8.335141) (xy -1.506210 8.568971) (xy -1.378315 8.661823) (xy -1.208322 8.733444) (xy -1.078663 8.735683) (xy -0.916062 8.681652) (xy -0.728149 8.534093)
     (xy -0.609039 8.290047) (xy -0.564806 7.996191) (xy -0.601522 7.699207) (xy -0.725264 7.445774) (xy -0.751234 7.414922) (xy -0.962014 7.286092) (xy -1.215244 7.274266) (xy -1.454604 7.375300)
     (xy -1.557404 7.474232) (xy -1.685231 7.738553) (xy -1.714359 8.041929) (xy -2.169684 8.041929) (xy -2.179814 7.966372) (xy -2.108070 7.603081) (xy -2.011430 7.416634) (xy -1.732347 7.116971)
     (xy -1.398901 6.948287) (xy -1.040044 6.914924) (xy -0.684731 7.021225) )(layer F.SilkS) (width  0.010000)
  )
  (fp_poly (pts (xy 1.826207 6.913980) (xy 2.033785 6.995692) (xy 2.184978 7.090484) (xy 2.217314 7.186777) (xy 2.175171 7.305006) (xy 2.099233 7.435170) (xy 2.012565 7.437223) (xy 1.925416 7.382237)
     (xy 1.683232 7.284580) (xy 1.422571 7.284732) (xy 1.237757 7.366000) (xy 1.047423 7.560730) (xy 0.930186 7.796721) (xy 0.872366 8.113488) (xy 0.859693 8.458005) (xy 0.857462 8.762822)
     (xy 0.843842 8.943674) (xy 0.808436 9.032901) (xy 0.740849 9.062842) (xy 0.664308 9.065846) (xy 0.468923 9.065846) (xy 0.468923 6.955692) (xy 0.664308 6.955692) (xy 0.820964 6.996102)
     (xy 0.859693 7.071774) (xy 0.883316 7.133712) (xy 0.975585 7.111121) (xy 1.113693 7.032989) (xy 1.468644 6.895352) (xy 1.826207 6.913980) )(layer F.SilkS) (width  0.010000)
  )
  (fp_poly (pts (xy 3.588388 8.534356) (xy 3.734470 8.579842) (xy 3.786686 8.703052) (xy 3.790462 8.792308) (xy 3.769847 8.958359) (xy 3.675432 9.029922) (xy 3.543142 9.050761) (xy 3.355402 9.043774)
     (xy 3.261854 8.957545) (xy 3.243608 8.910241) (xy 3.245513 8.710029) (xy 3.368120 8.572220) (xy 3.577992 8.533267) (xy 3.588388 8.534356) )(layer F.SilkS) (width  0.010000)
  )
  (fp_poly (pts (xy 6.566350 6.996407) (xy 6.839779 7.191609) (xy 6.840053 7.191912) (xy 6.935591 7.316722) (xy 6.922333 7.405611) (xy 6.854387 7.481261) (xy 6.754021 7.561205) (xy 6.663492 7.543364)
     (xy 6.541959 7.439752) (xy 6.284339 7.286888) (xy 6.011861 7.265962) (xy 5.758767 7.360514) (xy 5.559297 7.554088) (xy 5.447694 7.830224) (xy 5.435245 7.971692) (xy 5.499664 8.299040)
     (xy 5.673154 8.537421) (xy 5.926069 8.668539) (xy 6.228761 8.674097) (xy 6.448063 8.596734) (xy 6.627075 8.513466) (xy 6.730365 8.506283) (xy 6.819283 8.576144) (xy 6.843874 8.602903)
     (xy 6.915992 8.701018) (xy 6.894985 8.776647) (xy 6.761439 8.873692) (xy 6.710176 8.905236) (xy 6.360056 9.035048) (xy 5.959853 9.050511) (xy 5.570001 8.949976) (xy 5.293360 8.750278)
     (xy 5.101335 8.451076) (xy 5.008122 8.092412) (xy 5.027919 7.714330) (xy 5.075213 7.554439) (xy 5.260346 7.264921) (xy 5.540915 7.056371) (xy 5.878030 6.936776) (xy 6.232804 6.914126)
     (xy 6.566350 6.996407) )(layer F.SilkS) (width  0.010000)
  )
  (fp_poly (pts (xy 8.623421 6.951541) (xy 8.968088 7.135044) (xy 9.191856 7.417348) (xy 9.293660 7.796890) (xy 9.300308 7.942493) (xy 9.278267 8.232768) (xy 9.222104 8.495793) (xy 9.181754 8.599481)
     (xy 8.969224 8.853416) (xy 8.668523 9.010988) (xy 8.320479 9.064103) (xy 7.965919 9.004666) (xy 7.729250 8.887452) (xy 7.464870 8.632829) (xy 7.321038 8.327890) (xy 7.293643 8.072470)
     (xy 7.739233 8.072470) (xy 7.825001 8.337492) (xy 7.965681 8.524781) (xy 8.144607 8.686455) (xy 8.283955 8.743147) (xy 8.444732 8.709519) (xy 8.548887 8.664939) (xy 8.743281 8.498443)
     (xy 8.860003 8.242746) (xy 8.894389 7.946855) (xy 8.841774 7.659777) (xy 8.697494 7.430521) (xy 8.668796 7.405077) (xy 8.423353 7.276815) (xy 8.192408 7.278923) (xy 7.992241 7.385471)
     (xy 7.839135 7.570530) (xy 7.749372 7.808173) (xy 7.739233 8.072470) (xy 7.293643 8.072470) (xy 7.285727 7.998672) (xy 7.346910 7.671213) (xy 7.492562 7.371551) (xy 7.710656 7.125723)
     (xy 7.989165 6.959766) (xy 8.316064 6.899719) (xy 8.623421 6.951541) )(layer F.SilkS) (width  0.010000)
  )
  (fp_poly (pts (xy 11.459028 6.920880) (xy 11.593734 7.020461) (xy 11.650588 7.111329) (xy 11.688575 7.253840) (xy 11.711039 7.476299) (xy 11.721328 7.807010) (xy 11.723077 8.114615) (xy 11.723077 9.065846)
     (xy 11.332308 9.065846) (xy 11.332308 8.171689) (xy 11.324527 7.721784) (xy 11.298473 7.417174) (xy 11.250080 7.247497) (xy 11.175280 7.202386) (xy 11.070007 7.271477) (xy 11.007035 7.342685)
     (xy 10.937873 7.456304) (xy 10.894436 7.613521) (xy 10.871439 7.849291) (xy 10.863600 8.198570) (xy 10.863385 8.292966) (xy 10.862161 8.645283) (xy 10.853653 8.869990) (xy 10.830606 8.995784)
     (xy 10.785765 9.051361) (xy 10.711877 9.065420) (xy 10.668000 9.065846) (xy 10.472616 9.065846) (xy 10.472616 8.171689) (xy 10.464835 7.721784) (xy 10.438781 7.417174) (xy 10.390388 7.247497)
     (xy 10.315588 7.202386) (xy 10.210315 7.271477) (xy 10.147343 7.342685) (xy 10.078181 7.456304) (xy 10.034743 7.613521) (xy 10.011747 7.849291) (xy 10.003908 8.198570) (xy 10.003693 8.292966)
     (xy 10.002469 8.645283) (xy 9.993961 8.869990) (xy 9.970914 8.995784) (xy 9.926073 9.051361) (xy 9.852185 9.065420) (xy 9.808308 9.065846) (xy 9.612923 9.065846) (xy 9.612923 6.950796)
     (xy 9.866923 6.957192) (xy 10.125388 6.944711) (xy 10.338585 6.910929) (xy 10.577435 6.911975) (xy 10.690277 6.979169) (xy 10.812096 7.058043) (xy 10.930055 7.020874) (xy 10.976015 6.988803)
     (xy 11.220847 6.886805) (xy 11.459028 6.920880) )(layer F.SilkS) (width  0.010000)
  )
  (fp_poly (pts (xy 14.927385 7.104730) (xy 15.145736 6.979414) (xy 15.442293 6.893439) (xy 15.760748 6.941852) (xy 16.060054 7.115969) (xy 16.138045 7.189398) (xy 16.317900 7.473940) (xy 16.401375 7.820186)
     (xy 16.393266 8.186151) (xy 16.298369 8.529850) (xy 16.121478 8.809295) (xy 15.936727 8.952058) (xy 15.625470 9.049272) (xy 15.301915 9.048533) (xy 15.032120 8.950439) (xy 15.022336 8.943768)
     (xy 14.891986 8.865210) (xy 14.829144 8.884729) (xy 14.801200 8.943768) (xy 14.692944 9.046748) (xy 14.606408 9.065846) (xy 14.555546 9.057822) (xy 14.517884 9.020193) (xy 14.491448 8.932629)
     (xy 14.474264 8.774798) (xy 14.464359 8.526367) (xy 14.459759 8.167005) (xy 14.458668 7.745038) (xy 14.940755 7.745038) (xy 14.942690 8.052659) (xy 14.942960 8.058416) (xy 14.963079 8.336400)
     (xy 15.001041 8.501611) (xy 15.072902 8.597572) (xy 15.161846 8.651864) (xy 15.435411 8.709917) (xy 15.705759 8.614371) (xy 15.798876 8.543493) (xy 15.929072 8.340493) (xy 15.981318 8.066063)
     (xy 15.959759 7.773593) (xy 15.868539 7.516472) (xy 15.711802 7.348089) (xy 15.705841 7.344812) (xy 15.441355 7.272048) (xy 15.189079 7.317729) (xy 15.052765 7.415610) (xy 14.974982 7.547121)
     (xy 14.940755 7.745038) (xy 14.458668 7.745038) (xy 14.458490 7.676379) (xy 14.458462 7.541846) (xy 14.458462 6.017846) (xy 14.927385 6.017846) (xy 14.927385 7.104730) )(layer F.SilkS) (width  0.010000)
  )
  (fp_poly (pts (xy 18.016431 6.925787) (xy 18.335059 7.064560) (xy 18.609031 7.330593) (xy 18.644464 7.381852) (xy 18.740270 7.637613) (xy 18.771261 7.969736) (xy 18.737275 8.312273) (xy 18.647387 8.582043)
     (xy 18.431280 8.842599) (xy 18.126578 9.007130) (xy 17.775130 9.065726) (xy 17.418789 9.008476) (xy 17.226668 8.918473) (xy 16.966463 8.675320) (xy 16.796132 8.343720) (xy 16.740380 7.977300)
     (xy 16.743383 7.939478) (xy 17.193846 7.939478) (xy 17.245283 8.282699) (xy 17.383757 8.540870) (xy 17.585512 8.696928) (xy 17.826793 8.733809) (xy 18.083846 8.634450) (xy 18.122534 8.606558)
     (xy 18.278444 8.398277) (xy 18.354143 8.111189) (xy 18.345016 7.803296) (xy 18.246453 7.532600) (xy 18.211861 7.483231) (xy 17.995578 7.309287) (xy 17.754109 7.265210) (xy 17.520944 7.335991)
     (xy 17.329574 7.506618) (xy 17.213490 7.762083) (xy 17.193846 7.939478) (xy 16.743383 7.939478) (xy 16.748132 7.879678) (xy 16.863747 7.494068) (xy 17.076804 7.198413) (xy 17.358883 7.000174)
     (xy 17.681566 6.906811) (xy 18.016431 6.925787) )(layer F.SilkS) (width  0.010000)
  )
  (fp_poly (pts (xy 19.542613 6.985531) (xy 19.697946 7.095237) (xy 19.871950 7.299471) (xy 20.134445 7.643250) (xy 20.363992 7.301189) (xy 20.532687 7.082893) (xy 20.681752 6.978849) (xy 20.808462 6.957410)
     (xy 20.964548 6.969494) (xy 21.023385 6.998106) (xy 20.980352 7.077767) (xy 20.867577 7.245669) (xy 20.710770 7.463692) (xy 20.552834 7.684150) (xy 20.440443 7.853761) (xy 20.398154 7.935214)
     (xy 20.442523 8.016312) (xy 20.559619 8.185665) (xy 20.725424 8.408760) (xy 20.749846 8.440615) (xy 20.958001 8.722798) (xy 21.066773 8.907414) (xy 21.081119 9.013279) (xy 21.005995 9.059211)
     (xy 20.914561 9.065846) (xy 20.755016 9.013002) (xy 20.567159 8.843359) (xy 20.429578 8.675077) (xy 20.273795 8.472856) (xy 20.162032 8.331663) (xy 20.120788 8.284308) (xy 20.074980 8.343188)
     (xy 19.966722 8.496292) (xy 19.843770 8.674926) (xy 19.669186 8.906959) (xy 19.527134 9.027413) (xy 19.381874 9.065316) (xy 19.362616 9.065695) (xy 19.206527 9.050500) (xy 19.147693 9.017155)
     (xy 19.190060 8.934884) (xy 19.302427 8.760303) (xy 19.462689 8.527393) (xy 19.505977 8.466374) (xy 19.864262 7.964282) (xy 19.559651 7.557680) (xy 19.353209 7.280083) (xy 19.233045 7.104435)
     (xy 19.191962 7.007406) (xy 19.222764 6.965665) (xy 19.318254 6.955883) (xy 19.373962 6.955692) (xy 19.542613 6.985531) )(layer F.SilkS) (width  0.010000)
  )
  (fp_poly (pts (xy 22.795058 6.254511) (xy 22.981862 6.385428) (xy 23.217375 6.640489) (xy 23.364189 6.950728) (xy 23.434941 7.350835) (xy 23.446154 7.659680) (xy 23.399517 8.179768) (xy 23.262661 8.586458)
     (xy 23.040173 8.873072) (xy 22.736635 9.032934) (xy 22.480608 9.065846) (xy 22.255405 9.039929) (xy 22.071994 8.939667) (xy 21.917467 8.792706) (xy 21.717668 8.492924) (xy 22.161153 8.492924)
     (xy 22.234707 8.599435) (xy 22.369806 8.667719) (xy 22.613808 8.684813) (xy 22.836902 8.550014) (xy 22.881874 8.500421) (xy 22.970738 8.321958) (xy 23.043248 8.054705) (xy 23.086067 7.766149)
     (xy 23.085861 7.523780) (xy 23.080862 7.493386) (xy 23.056436 7.398058) (xy 23.017942 7.365385) (xy 22.944283 7.408938) (xy 22.814359 7.542292) (xy 22.607071 7.779018) (xy 22.569883 7.822100)
     (xy 22.324039 8.124127) (xy 22.189363 8.341111) (xy 22.161153 8.492924) (xy 21.717668 8.492924) (xy 21.674022 8.427438) (xy 21.541344 7.992316) (xy 21.526449 7.686561) (xy 21.884829 7.686561)
     (xy 21.903600 7.840707) (xy 21.981167 7.864556) (xy 22.126720 7.758659) (xy 22.349449 7.523564) (xy 22.428990 7.432225) (xy 22.634582 7.189528) (xy 22.794535 6.993424) (xy 22.886074 6.872210)
     (xy 22.899077 6.848295) (xy 22.833919 6.737042) (xy 22.681237 6.629822) (xy 22.505215 6.568296) (xy 22.462500 6.564923) (xy 22.275113 6.638151) (xy 22.106610 6.838130) (xy 21.976309 7.135306)
     (xy 21.915665 7.401571) (xy 21.884829 7.686561) (xy 21.526449 7.686561) (xy 21.518675 7.527004) (xy 21.605258 7.071165) (xy 21.800335 6.664463) (xy 21.961908 6.467703) (xy 22.248109 6.245230)
     (xy 22.520216 6.174618) (xy 22.795058 6.254511) )(layer F.SilkS) (width  0.010000)
  )
  (fp_poly (pts (xy -8.050211 6.173738) (xy -8.010769 6.330461) (xy -8.069516 6.488053) (xy -8.205936 6.562993) (xy -8.360298 6.545770) (xy -8.472873 6.426875) (xy -8.480747 6.405292) (xy -8.486259 6.216441)
     (xy -8.368314 6.115668) (xy -8.195629 6.108921) (xy -8.050211 6.173738) )(layer F.SilkS) (width  0.010000)
  )
  (fp_poly (pts (xy -5.699823 -5.659695) (xy -5.090394 -5.597842) (xy -4.544172 -5.484279) (xy -4.415692 -5.445382) (xy -3.588988 -5.097493) (xy -2.862802 -4.630601) (xy -2.240275 -4.047977) (xy -1.724550 -3.352889)
     (xy -1.318770 -2.548606) (xy -1.134607 -2.032000) (xy -1.040015 -1.604858) (xy -0.978792 -1.075393) (xy -0.952422 -0.494302) (xy -0.962393 0.087717) (xy -1.010191 0.619965) (xy -1.049895 0.857310)
     (xy -1.298813 1.733295) (xy -1.668904 2.521049) (xy -2.152742 3.211972) (xy -2.742898 3.797461) (xy -3.431945 4.268917) (xy -4.212455 4.617738) (xy -4.331410 4.657191) (xy -4.924929 4.797939)
     (xy -5.599899 4.879885) (xy -6.292974 4.899744) (xy -6.940813 4.854234) (xy -7.222600 4.807064) (xy -8.056750 4.555243) (xy -8.831203 4.167243) (xy -9.530726 3.656737) (xy -10.140082 3.037397)
     (xy -10.644038 2.322895) (xy -11.027358 1.526904) (xy -11.098583 1.328615) (xy -11.211749 0.870854) (xy -11.286660 0.315076) (xy -11.321069 -0.284630) (xy -11.318971 -0.432965) (xy -9.377534 -0.432965)
     (xy -9.342461 0.221093) (xy -9.228400 0.801480) (xy -9.019270 1.377613) (xy -8.897905 1.637687) (xy -8.527725 2.227740) (xy -8.059460 2.714143) (xy -7.513146 3.087762) (xy -6.908814 3.339463)
     (xy -6.266499 3.460111) (xy -5.606233 3.440572) (xy -5.158154 3.342828) (xy -4.530278 3.076261) (xy -3.981947 2.681012) (xy -3.523595 2.168600) (xy -3.165660 1.550543) (xy -2.930118 0.883662)
     (xy -2.874733 0.581684) (xy -2.834327 0.184558) (xy -2.814587 -0.246830) (xy -2.813538 -0.364078) (xy -2.876771 -1.219627) (xy -3.066376 -1.983734) (xy -3.382219 -2.656048) (xy -3.824162 -3.236219)
     (xy -4.005215 -3.414342) (xy -4.557608 -3.826430) (xy -5.162504 -4.108332) (xy -5.796187 -4.252520) (xy -6.434943 -4.251469) (xy -6.576867 -4.230460) (xy -7.257881 -4.036501) (xy -7.858075 -3.714855)
     (xy -8.369723 -3.276000) (xy -8.785096 -2.730415) (xy -9.096467 -2.088579) (xy -9.296106 -1.360970) (xy -9.376286 -0.558067) (xy -9.377534 -0.432965) (xy -11.318971 -0.432965) (xy -11.312730 -0.874177)
     (xy -11.259397 -1.399476) (xy -11.220235 -1.599994) (xy -10.942833 -2.449339) (xy -10.532090 -3.224412) (xy -9.996589 -3.916436) (xy -9.344914 -4.516632) (xy -8.585650 -5.016222) (xy -7.727381 -5.406427)
     (xy -7.385538 -5.521601) (xy -6.899576 -5.622914) (xy -6.320277 -5.668499) (xy -5.699823 -5.659695) )(layer F.SilkS) (width  0.010000)
  )
  (fp_poly (pts (xy 19.361513 -9.113885) (xy 20.037399 -8.878471) (xy 20.682408 -8.517925) (xy 21.285239 -8.039878) (xy 21.834595 -7.451958) (xy 22.319174 -6.761795) (xy 22.727678 -5.977020) (xy 23.048809 -5.105262)
     (xy 23.056254 -5.080278) (xy 23.238836 -4.356623) (xy 23.360978 -3.606162) (xy 23.428072 -2.786060) (xy 23.445857 -1.983622) (xy 23.426839 -1.151631) (xy 23.365002 -0.427722) (xy 23.253854 0.232054)
     (xy 23.086901 0.871644) (xy 22.972389 1.220855) (xy 22.645516 1.995693) (xy 22.230438 2.718672) (xy 21.747236 3.362222) (xy 21.215991 3.898771) (xy 20.786646 4.221769) (xy 20.277418 4.488800)
     (xy 19.694449 4.696735) (xy 19.083580 4.835762) (xy 18.490650 4.896066) (xy 17.961498 4.867833) (xy 17.858154 4.848757) (xy 17.095320 4.607314) (xy 16.384268 4.225743) (xy 15.733189 3.714022)
     (xy 15.150272 3.082128) (xy 14.643705 2.340039) (xy 14.257807 1.569840) (xy 16.177330 1.569840) (xy 16.291940 1.791472) (xy 16.402112 1.959984) (xy 16.582495 2.191830) (xy 16.794767 2.437857)
     (xy 16.802470 2.446303) (xy 17.307971 2.914347) (xy 17.826594 3.226675) (xy 18.358276 3.383273) (xy 18.902954 3.384126) (xy 19.460564 3.229222) (xy 19.718882 3.106996) (xy 20.219570 2.754182)
     (xy 20.660503 2.268666) (xy 21.036596 1.664179) (xy 21.342763 0.954455) (xy 21.573917 0.153226) (xy 21.724975 -0.725774) (xy 21.790849 -1.668814) (xy 21.779015 -2.455964) (xy 21.745705 -2.957563)
     (xy 21.700944 -3.422810) (xy 21.648465 -3.825341) (xy 21.592003 -4.138795) (xy 21.535292 -4.336813) (xy 21.505523 -4.386802) (xy 21.445436 -4.339464) (xy 21.292505 -4.185092) (xy 21.056576 -3.934495)
     (xy 20.747493 -3.598484) (xy 20.375103 -3.187867) (xy 19.949249 -2.713454) (xy 19.479778 -2.186054) (xy 18.976535 -1.616477) (xy 18.815280 -1.433113) (xy 16.177330 1.569840) (xy 14.257807 1.569840)
     (xy 14.221678 1.497732) (xy 13.892381 0.565185) (xy 13.706998 -0.208952) (xy 13.634970 -0.718518) (xy 13.589806 -1.331879) (xy 13.571555 -2.000450) (xy 13.571576 -2.002120) (xy 15.251666 -2.002120)
     (xy 15.282965 -1.402991) (xy 15.308563 -1.172308) (xy 15.363577 -0.806438) (xy 15.424961 -0.469551) (xy 15.486020 -0.191453) (xy 15.540058 -0.001949) (xy 15.580378 0.069157) (xy 15.586750 0.065944)
     (xy 15.640845 0.003425) (xy 15.787658 -0.166031) (xy 16.017513 -0.431260) (xy 16.320734 -0.781100) (xy 16.687644 -1.204386) (xy 17.108567 -1.689957) (xy 17.573828 -2.226649) (xy 18.073750 -2.803298)
     (xy 18.238284 -2.993079) (xy 18.746930 -3.580959) (xy 19.223159 -4.133669) (xy 19.657370 -4.639904) (xy 20.039959 -5.088358) (xy 20.361322 -5.467727) (xy 20.611858 -5.766704) (xy 20.781964 -5.973984)
     (xy 20.862036 -6.078262) (xy 20.867077 -6.087969) (xy 20.815581 -6.210373) (xy 20.679038 -6.408404) (xy 20.484364 -6.648619) (xy 20.258478 -6.897575) (xy 20.052971 -7.099426) (xy 19.556581 -7.468504)
     (xy 19.045077 -7.688858) (xy 18.528078 -7.766100) (xy 18.015203 -7.705845) (xy 17.516070 -7.513707) (xy 17.040298 -7.195300) (xy 16.597504 -6.756238) (xy 16.197307 -6.202134) (xy 15.849325 -5.538602)
     (xy 15.563177 -4.771257) (xy 15.464202 -4.421125) (xy 15.365401 -3.917221) (xy 15.295381 -3.311345) (xy 15.256637 -2.655608) (xy 15.251666 -2.002120) (xy 13.571576 -2.002120) (xy 13.580265 -2.675641)
     (xy 13.615984 -3.308866) (xy 13.678759 -3.851538) (xy 13.703259 -3.991400) (xy 13.951652 -4.976081) (xy 14.297177 -5.890662) (xy 14.730447 -6.721949) (xy 15.242074 -7.456748) (xy 15.822673 -8.081865)
     (xy 16.462856 -8.584105) (xy 17.153236 -8.950274) (xy 17.261581 -8.993040) (xy 17.962305 -9.178799) (xy 18.666048 -9.216537) (xy 19.361513 -9.113885) )(layer F.SilkS) (width  0.010000)
  )
  (fp_poly (pts (xy -21.003846 -9.143359) (xy -20.008446 -9.137773) (xy -19.152204 -9.120179) (xy -18.418283 -9.088481) (xy -17.789846 -9.040579) (xy -17.250057 -8.974378) (xy -16.782081 -8.887780) (xy -16.369081 -8.778688)
     (xy -15.994221 -8.645003) (xy -15.640665 -8.484630) (xy -15.615919 -8.472167) (xy -15.056675 -8.108489) (xy -14.609816 -7.653630) (xy -14.277742 -7.127473) (xy -14.062854 -6.549902) (xy -13.967550 -5.940800)
     (xy -13.994231 -5.320051) (xy -14.145296 -4.707536) (xy -14.423146 -4.123140) (xy -14.830178 -3.586745) (xy -15.005266 -3.412487) (xy -15.264098 -3.192205) (xy -15.519905 -3.006489) (xy -15.723042 -2.890902)
     (xy -15.746344 -2.881650) (xy -15.923126 -2.807173) (xy -16.014159 -2.748125) (xy -16.017615 -2.739223) (xy -15.950738 -2.685967) (xy -15.780190 -2.589529) (xy -15.568230 -2.483153) (xy -14.969273 -2.129491)
     (xy -14.431069 -1.681220) (xy -13.979249 -1.166265) (xy -13.639446 -0.612550) (xy -13.478990 -0.207050) (xy -13.403703 0.168398) (xy -13.365716 0.629011) (xy -13.366144 1.108526) (xy -13.406107 1.540676)
     (xy -13.446198 1.737390) (xy -13.690658 2.365034) (xy -14.067530 2.946464) (xy -14.554148 3.455025) (xy -15.127845 3.864061) (xy -15.357230 3.984645) (xy -15.741118 4.150193) (xy -16.153023 4.289579)
     (xy -16.608625 4.404657) (xy -17.123601 4.497279) (xy -17.713631 4.569295) (xy -18.394391 4.622558) (xy -19.181563 4.658920) (xy -20.090822 4.680232) (xy -21.137848 4.688348) (xy -21.316461 4.688545)
     (xy -23.446154 4.689231) (xy -23.446154 3.204308) (xy -21.726769 3.204308) (xy -19.822667 3.204308) (xy -19.265632 3.201074) (xy -18.736698 3.192000) (xy -18.263780 3.178031) (xy -17.874793 3.160109)
     (xy -17.597651 3.139178) (xy -17.497590 3.125741) (xy -16.875968 2.946545) (xy -16.340029 2.662742) (xy -15.911662 2.287068) (xy -15.787021 2.130424) (xy -15.515283 1.673349) (xy -15.327558 1.194850)
     (xy -15.242901 0.746204) (xy -15.240000 0.658355) (xy -15.292697 0.249945) (xy -15.434200 -0.201808) (xy -15.639623 -0.632974) (xy -15.872562 -0.966703) (xy -16.146205 -1.246427) (xy -16.439641 -1.475635)
     (xy -16.771561 -1.659517) (xy -17.160660 -1.803264) (xy -17.625630 -1.912065) (xy -18.185165 -1.991112) (xy -18.857957 -2.045595) (xy -19.662701 -2.080703) (xy -19.909692 -2.087654) (xy -21.726769 -2.134008)
     (xy -21.726769 3.204308) (xy -23.446154 3.204308) (xy -23.446154 -3.419328) (xy -21.726769 -3.419328) (xy -19.870615 -3.460747) (xy -19.156912 -3.480629) (xy -18.586224 -3.505654) (xy -18.145315 -3.536753)
     (xy -17.820950 -3.574855) (xy -17.602594 -3.620113) (xy -16.977900 -3.860260) (xy -16.477138 -4.185568) (xy -16.104888 -4.591943) (xy -15.865728 -5.075292) (xy -15.827462 -5.206922) (xy -15.781445 -5.687677)
     (xy -15.879067 -6.156801) (xy -16.107793 -6.596211) (xy -16.455088 -6.987826) (xy -16.908415 -7.313563) (xy -17.455241 -7.555340) (xy -17.455587 -7.555454) (xy -17.620183 -7.599766) (xy -17.827507 -7.634945)
     (xy -18.098517 -7.662452) (xy -18.454170 -7.683750) (xy -18.915422 -7.700300) (xy -19.503231 -7.713567) (xy -19.792461 -7.718504) (xy -21.726769 -7.749257) (xy -21.726769 -3.419328) (xy -23.446154 -3.419328)
     (xy -23.446154 -9.144000) (xy -21.003846 -9.143359) )(layer F.SilkS) (width  0.010000)
  )
  (fp_poly (pts (xy 10.213029 -5.466937) (xy 10.509132 -5.456497) (xy 10.709951 -5.441038) (xy 10.785213 -5.422146) (xy 10.785231 -5.421838) (xy 10.740014 -5.350418) (xy 10.611118 -5.167819) (xy 10.408681 -4.887883)
     (xy 10.142837 -4.524457) (xy 9.823723 -4.091385) (xy 9.461475 -3.602511) (xy 9.066227 -3.071679) (xy 8.984582 -2.962328) (xy 7.183932 -0.551749) (xy 9.203397 1.971049) (xy 9.639877 2.516872)
     (xy 10.046781 3.026777) (xy 10.413519 3.487413) (xy 10.729498 3.885427) (xy 10.984128 4.207471) (xy 11.166817 4.440191) (xy 11.266974 4.570239) (xy 11.282197 4.591538) (xy 11.273821 4.632256)
     (xy 11.178817 4.660581) (xy 10.978946 4.678306) (xy 10.655966 4.687227) (xy 10.289137 4.689231) (xy 9.236741 4.689231) (xy 7.771148 2.833077) (xy 7.400467 2.364066) (xy 7.058369 1.932080)
     (xy 6.757593 1.553137) (xy 6.510879 1.243257) (xy 6.330967 1.018461) (xy 6.230596 0.894769) (xy 6.216578 0.878284) (xy 6.170363 0.876669) (xy 6.083991 0.942281) (xy 5.949369 1.084909)
     (xy 5.758407 1.314347) (xy 5.503012 1.640385) (xy 5.175093 2.072814) (xy 4.766559 2.621427) (xy 4.685493 2.731031) (xy 3.243385 4.682416) (xy 2.199485 4.685823) (xy 1.771158 4.684718)
     (xy 1.477810 4.676616) (xy 1.298181 4.659261) (xy 1.211015 4.630396) (xy 1.195053 4.587766) (xy 1.197691 4.579504) (xy 1.253514 4.495483) (xy 1.395028 4.302042) (xy 1.611747 4.012979)
     (xy 1.893186 3.642089) (xy 2.228862 3.203171) (xy 2.608288 2.710021) (xy 3.020981 2.176436) (xy 3.161120 1.995843) (xy 3.645427 1.370982) (xy 4.040862 0.857264) (xy 4.355451 0.443187)
     (xy 4.597226 0.117251) (xy 4.774214 -0.132048) (xy 4.894446 -0.316212) (xy 4.965949 -0.446742) (xy 4.996753 -0.535141) (xy 4.994887 -0.592911) (xy 4.983529 -0.614861) (xy 4.913904 -0.705888)
     (xy 4.758992 -0.905152) (xy 4.530202 -1.198084) (xy 4.238941 -1.570111) (xy 3.896618 -2.006663) (xy 3.514641 -2.493167) (xy 3.104419 -3.015054) (xy 3.087077 -3.037104) (xy 2.679283 -3.556659)
     (xy 2.302528 -4.038721) (xy 1.967662 -4.469251) (xy 1.685536 -4.834208) (xy 1.467002 -5.119552) (xy 1.322910 -5.311244) (xy 1.264110 -5.395242) (xy 1.263487 -5.396673) (xy 1.326548 -5.427116)
     (xy 1.526062 -5.450594) (xy 1.842270 -5.465611) (xy 2.240411 -5.470677) (xy 3.243385 -5.470584) (xy 4.687657 -3.636395) (xy 5.051565 -3.178064) (xy 5.385101 -2.765302) (xy 5.676038 -2.412659)
     (xy 5.912151 -2.134687) (xy 6.081213 -1.945936) (xy 6.170999 -1.860957) (xy 6.181491 -1.858488) (xy 6.239743 -1.933169) (xy 6.379782 -2.116294) (xy 6.589220 -2.391555) (xy 6.855669 -2.742642)
     (xy 7.166740 -3.153248) (xy 7.510046 -3.607063) (xy 7.574829 -3.692769) (xy 8.918606 -5.470769) (xy 9.851918 -5.470769) (xy 10.213029 -5.466937) )(layer F.SilkS) (width  0.010000)
  )
)
